^C:\USERS\JOSHW\SCHOOL\ALL_C\C,C++\S3\PRACTICE\CPPSTACK_IMPLEMENTATION\C++STACK_IMPLEMENTATION\UT_STACK_MAIN.CPP
C:\WINDOWS\GLOBALIZATION\SORTING\SORTDEFAULT.NLS
C:\PROGRAM FILES (X86)\MICROSOFT VISUAL STUDIO 14.0\VC\BIN\1033\CLUI.DLL
C:\WINDOWS\SYSTEM32\TZRES.DLL
C:\BOOST\BOOST_1_61_0\BOOST\TEST\UNIT_TEST.HPP
C:\BOOST\BOOST_1_61_0\BOOST\TEST\TEST_TOOLS.HPP
C:\BOOST\BOOST_1_61_0\BOOST\CONFIG.HPP
C:\BOOST\BOOST_1_61_0\BOOST\CONFIG\USER.HPP
C:\BOOST\BOOST_1_61_0\BOOST\CONFIG\SELECT_COMPILER_CONFIG.HPP
C:\BOOST\BOOST_1_61_0\BOOST\CONFIG\COMPILER\VISUALC.HPP
C:\BOOST\BOOST_1_61_0\BOOST\CONFIG\SELECT_STDLIB_CONFIG.HPP
C:\PROGRAM FILES (X86)\MICROSOFT VISUAL STUDIO 14.0\VC\INCLUDE\CSTDDEF
C:\PROGRAM FILES (X86)\MICROSOFT VISUAL STUDIO 14.0\VC\INCLUDE\YVALS.H
C:\PROGRAM FILES (X86)\MICROSOFT VISUAL STUDIO 14.0\VC\INCLUDE\XKEYCHECK.H
C:\PROGRAM FILES (X86)\MICROSOFT VISUAL STUDIO 14.0\VC\INCLUDE\CRTDEFS.H
C:\PROGRAM FILES (X86)\MICROSOFT VISUAL STUDIO 14.0\VC\INCLUDE\VCRUNTIME.H
C:\PROGRAM FILES (X86)\MICROSOFT VISUAL STUDIO 14.0\VC\INCLUDE\SAL.H
C:\PROGRAM FILES (X86)\MICROSOFT VISUAL STUDIO 14.0\VC\INCLUDE\CONCURRENCYSAL.H
C:\PROGRAM FILES (X86)\MICROSOFT VISUAL STUDIO 14.0\VC\INCLUDE\VADEFS.H
C:\PROGRAM FILES (X86)\WINDOWS KITS\10\INCLUDE\10.0.10240.0\UCRT\CORECRT.H
C:\PROGRAM FILES (X86)\MICROSOFT VISUAL STUDIO 14.0\VC\INCLUDE\USE_ANSI.H
C:\PROGRAM FILES (X86)\WINDOWS KITS\10\INCLUDE\10.0.10240.0\UCRT\STDDEF.H
C:\BOOST\BOOST_1_61_0\BOOST\CONFIG\STDLIB\DINKUMWARE.HPP
C:\PROGRAM FILES (X86)\MICROSOFT VISUAL STUDIO 14.0\VC\INCLUDE\TYPEINFO
C:\PROGRAM FILES (X86)\MICROSOFT VISUAL STUDIO 14.0\VC\INCLUDE\XSTDDEF
C:\PROGRAM FILES (X86)\MICROSOFT VISUAL STUDIO 14.0\VC\INCLUDE\CSTDLIB
C:\PROGRAM FILES (X86)\WINDOWS KITS\10\INCLUDE\10.0.10240.0\UCRT\STDLIB.H
C:\PROGRAM FILES (X86)\WINDOWS KITS\10\INCLUDE\10.0.10240.0\UCRT\CORECRT_MALLOC.H
C:\PROGRAM FILES (X86)\WINDOWS KITS\10\INCLUDE\10.0.10240.0\UCRT\CORECRT_SEARCH.H
C:\PROGRAM FILES (X86)\WINDOWS KITS\10\INCLUDE\10.0.10240.0\UCRT\CORECRT_WSTDLIB.H
C:\PROGRAM FILES (X86)\MICROSOFT VISUAL STUDIO 14.0\VC\INCLUDE\LIMITS.H
C:\PROGRAM FILES (X86)\MICROSOFT VISUAL STUDIO 14.0\VC\INCLUDE\INITIALIZER_LIST
C:\PROGRAM FILES (X86)\MICROSOFT VISUAL STUDIO 14.0\VC\INCLUDE\XTR1COMMON
C:\PROGRAM FILES (X86)\MICROSOFT VISUAL STUDIO 14.0\VC\INCLUDE\EXCEPTION
C:\PROGRAM FILES (X86)\MICROSOFT VISUAL STUDIO 14.0\VC\INCLUDE\TYPE_TRAITS
C:\PROGRAM FILES (X86)\WINDOWS KITS\10\INCLUDE\10.0.10240.0\UCRT\MALLOC.H
C:\PROGRAM FILES (X86)\MICROSOFT VISUAL STUDIO 14.0\VC\INCLUDE\VCRUNTIME_EXCEPTION.H
C:\PROGRAM FILES (X86)\MICROSOFT VISUAL STUDIO 14.0\VC\INCLUDE\EH.H
C:\PROGRAM FILES (X86)\WINDOWS KITS\10\INCLUDE\10.0.10240.0\UCRT\CORECRT_TERMINATE.H
C:\PROGRAM FILES (X86)\MICROSOFT VISUAL STUDIO 14.0\VC\INCLUDE\VCRUNTIME_TYPEINFO.H
C:\BOOST\BOOST_1_61_0\BOOST\CONFIG\SELECT_PLATFORM_CONFIG.HPP
C:\BOOST\BOOST_1_61_0\BOOST\CONFIG\PLATFORM\WIN32.HPP
C:\BOOST\BOOST_1_61_0\BOOST\CONFIG\SUFFIX.HPP
C:\BOOST\BOOST_1_61_0\BOOST\TEST\DETAIL\CONFIG.HPP
C:\BOOST\BOOST_1_61_0\BOOST\DETAIL\WORKAROUND.HPP
C:\BOOST\BOOST_1_61_0\BOOST\PREPROCESSOR\CONFIG\CONFIG.HPP
C:\BOOST\BOOST_1_61_0\BOOST\TEST\TOOLS\CONTEXT.HPP
C:\BOOST\BOOST_1_61_0\BOOST\TEST\UTILS\LAZY_OSTREAM.HPP
C:\PROGRAM FILES (X86)\MICROSOFT VISUAL STUDIO 14.0\VC\INCLUDE\IOSFWD
C:\PROGRAM FILES (X86)\MICROSOFT VISUAL STUDIO 14.0\VC\INCLUDE\CSTDIO
C:\PROGRAM FILES (X86)\WINDOWS KITS\10\INCLUDE\10.0.10240.0\UCRT\STDIO.H
C:\PROGRAM FILES (X86)\WINDOWS KITS\10\INCLUDE\10.0.10240.0\UCRT\CORECRT_WSTDIO.H
C:\PROGRAM FILES (X86)\WINDOWS KITS\10\INCLUDE\10.0.10240.0\UCRT\CORECRT_STDIO_CONFIG.H
C:\PROGRAM FILES (X86)\MICROSOFT VISUAL STUDIO 14.0\VC\INCLUDE\CSTRING
C:\PROGRAM FILES (X86)\WINDOWS KITS\10\INCLUDE\10.0.10240.0\UCRT\STRING.H
C:\PROGRAM FILES (X86)\WINDOWS KITS\10\INCLUDE\10.0.10240.0\UCRT\CORECRT_MEMORY.H
C:\PROGRAM FILES (X86)\WINDOWS KITS\10\INCLUDE\10.0.10240.0\UCRT\CORECRT_MEMCPY_S.H
C:\PROGRAM FILES (X86)\WINDOWS KITS\10\INCLUDE\10.0.10240.0\UCRT\ERRNO.H
C:\PROGRAM FILES (X86)\MICROSOFT VISUAL STUDIO 14.0\VC\INCLUDE\VCRUNTIME_STRING.H
C:\PROGRAM FILES (X86)\WINDOWS KITS\10\INCLUDE\10.0.10240.0\UCRT\CORECRT_WSTRING.H
C:\PROGRAM FILES (X86)\MICROSOFT VISUAL STUDIO 14.0\VC\INCLUDE\CWCHAR
C:\PROGRAM FILES (X86)\WINDOWS KITS\10\INCLUDE\10.0.10240.0\UCRT\WCHAR.H
C:\PROGRAM FILES (X86)\WINDOWS KITS\10\INCLUDE\10.0.10240.0\UCRT\CORECRT_WCONIO.H
C:\PROGRAM FILES (X86)\WINDOWS KITS\10\INCLUDE\10.0.10240.0\UCRT\CORECRT_WCTYPE.H
C:\PROGRAM FILES (X86)\WINDOWS KITS\10\INCLUDE\10.0.10240.0\UCRT\CORECRT_WDIRECT.H
C:\PROGRAM FILES (X86)\WINDOWS KITS\10\INCLUDE\10.0.10240.0\UCRT\CORECRT_WIO.H
C:\PROGRAM FILES (X86)\WINDOWS KITS\10\INCLUDE\10.0.10240.0\UCRT\CORECRT_SHARE.H
C:\PROGRAM FILES (X86)\WINDOWS KITS\10\INCLUDE\10.0.10240.0\UCRT\CORECRT_WPROCESS.H
C:\PROGRAM FILES (X86)\WINDOWS KITS\10\INCLUDE\10.0.10240.0\UCRT\CORECRT_WTIME.H
C:\PROGRAM FILES (X86)\WINDOWS KITS\10\INCLUDE\10.0.10240.0\UCRT\SYS\STAT.H
C:\PROGRAM FILES (X86)\WINDOWS KITS\10\INCLUDE\10.0.10240.0\UCRT\SYS\TYPES.H
C:\PROGRAM FILES (X86)\WINDOWS KITS\10\INCLUDE\10.0.10240.0\UCRT\CRTDBG.H
C:\PROGRAM FILES (X86)\MICROSOFT VISUAL STUDIO 14.0\VC\INCLUDE\VCRUNTIME_NEW_DEBUG.H
C:\PROGRAM FILES (X86)\MICROSOFT VISUAL STUDIO 14.0\VC\INCLUDE\VCRUNTIME_NEW.H
C:\BOOST\BOOST_1_61_0\BOOST\TEST\DETAIL\SUPPRESS_WARNINGS.HPP
C:\BOOST\BOOST_1_61_0\BOOST\TEST\DETAIL\ENABLE_WARNINGS.HPP
C:\BOOST\BOOST_1_61_0\BOOST\TEST\TOOLS\OLD\INTERFACE.HPP
C:\BOOST\BOOST_1_61_0\BOOST\PREPROCESSOR\SEQ\FOR_EACH.HPP
C:\BOOST\BOOST_1_61_0\BOOST\PREPROCESSOR\ARITHMETIC\DEC.HPP
C:\BOOST\BOOST_1_61_0\BOOST\PREPROCESSOR\CONTROL\IF.HPP
C:\BOOST\BOOST_1_61_0\BOOST\PREPROCESSOR\CONTROL\IIF.HPP
C:\BOOST\BOOST_1_61_0\BOOST\PREPROCESSOR\LOGICAL\BOOL.HPP
C:\BOOST\BOOST_1_61_0\BOOST\PREPROCESSOR\REPETITION\FOR.HPP
C:\BOOST\BOOST_1_61_0\BOOST\PREPROCESSOR\CAT.HPP
C:\BOOST\BOOST_1_61_0\BOOST\PREPROCESSOR\DEBUG\ERROR.HPP
C:\BOOST\BOOST_1_61_0\BOOST\PREPROCESSOR\FACILITIES\EMPTY.HPP
C:\BOOST\BOOST_1_61_0\BOOST\PREPROCESSOR\DETAIL\AUTO_REC.HPP
C:\BOOST\BOOST_1_61_0\BOOST\PREPROCESSOR\REPETITION\DETAIL\MSVC\FOR.HPP
C:\BOOST\BOOST_1_61_0\BOOST\PREPROCESSOR\TUPLE\EAT.HPP
C:\BOOST\BOOST_1_61_0\BOOST\PREPROCESSOR\SEQ\SEQ.HPP
C:\BOOST\BOOST_1_61_0\BOOST\PREPROCESSOR\SEQ\ELEM.HPP
C:\BOOST\BOOST_1_61_0\BOOST\PREPROCESSOR\SEQ\SIZE.HPP
C:\BOOST\BOOST_1_61_0\BOOST\PREPROCESSOR\SEQ\DETAIL\IS_EMPTY.HPP
C:\BOOST\BOOST_1_61_0\BOOST\PREPROCESSOR\LOGICAL\COMPL.HPP
C:\BOOST\BOOST_1_61_0\BOOST\PREPROCESSOR\TUPLE\ELEM.HPP
C:\BOOST\BOOST_1_61_0\BOOST\PREPROCESSOR\FACILITIES\EXPAND.HPP
C:\BOOST\BOOST_1_61_0\BOOST\PREPROCESSOR\FACILITIES\OVERLOAD.HPP
C:\BOOST\BOOST_1_61_0\BOOST\PREPROCESSOR\VARIADIC\SIZE.HPP
C:\BOOST\BOOST_1_61_0\BOOST\PREPROCESSOR\TUPLE\REM.HPP
C:\BOOST\BOOST_1_61_0\BOOST\PREPROCESSOR\TUPLE\DETAIL\IS_SINGLE_RETURN.HPP
C:\BOOST\BOOST_1_61_0\BOOST\PREPROCESSOR\FACILITIES\IS_1.HPP
C:\BOOST\BOOST_1_61_0\BOOST\PREPROCESSOR\FACILITIES\IS_EMPTY.HPP
C:\BOOST\BOOST_1_61_0\BOOST\PREPROCESSOR\FACILITIES\IS_EMPTY_VARIADIC.HPP
C:\BOOST\BOOST_1_61_0\BOOST\PREPROCESSOR\PUNCTUATION\IS_BEGIN_PARENS.HPP
C:\BOOST\BOOST_1_61_0\BOOST\PREPROCESSOR\PUNCTUATION\DETAIL\IS_BEGIN_PARENS.HPP
C:\BOOST\BOOST_1_61_0\BOOST\PREPROCESSOR\FACILITIES\DETAIL\IS_EMPTY.HPP
C:\BOOST\BOOST_1_61_0\BOOST\PREPROCESSOR\TUPLE\SIZE.HPP
C:\BOOST\BOOST_1_61_0\BOOST\PREPROCESSOR\VARIADIC\ELEM.HPP
C:\BOOST\BOOST_1_61_0\BOOST\PREPROCESSOR\SEQ\TO_TUPLE.HPP
C:\BOOST\BOOST_1_61_0\BOOST\PREPROCESSOR\SEQ\ENUM.HPP
C:\BOOST\BOOST_1_61_0\BOOST\TEST\TOOLS\OLD\IMPL.HPP
C:\BOOST\BOOST_1_61_0\BOOST\TEST\UNIT_TEST_LOG.HPP
C:\BOOST\BOOST_1_61_0\BOOST\TEST\TREE\OBSERVER.HPP
C:\BOOST\BOOST_1_61_0\BOOST\TEST\DETAIL\FWD_DECL.HPP
C:\BOOST\BOOST_1_61_0\BOOST\TEST\DETAIL\GLOBAL_TYPEDEF.HPP
C:\BOOST\BOOST_1_61_0\BOOST\TEST\UTILS\BASIC_CSTRING\BASIC_CSTRING.HPP
C:\BOOST\BOOST_1_61_0\BOOST\TEST\UTILS\BASIC_CSTRING\BASIC_CSTRING_FWD.HPP
C:\BOOST\BOOST_1_61_0\BOOST\TEST\UTILS\BASIC_CSTRING\BCS_CHAR_TRAITS.HPP
C:\BOOST\BOOST_1_61_0\BOOST\TYPE_TRAITS\ADD_CONST.HPP
C:\BOOST\BOOST_1_61_0\BOOST\TYPE_TRAITS\DETAIL\CONFIG.HPP
C:\BOOST\BOOST_1_61_0\BOOST\VERSION.HPP
C:\PROGRAM FILES (X86)\MICROSOFT VISUAL STUDIO 14.0\VC\INCLUDE\STRING
C:\PROGRAM FILES (X86)\MICROSOFT VISUAL STUDIO 14.0\VC\INCLUDE\ISTREAM
C:\PROGRAM FILES (X86)\MICROSOFT VISUAL STUDIO 14.0\VC\INCLUDE\OSTREAM
C:\PROGRAM FILES (X86)\MICROSOFT VISUAL STUDIO 14.0\VC\INCLUDE\IOS
C:\PROGRAM FILES (X86)\MICROSOFT VISUAL STUDIO 14.0\VC\INCLUDE\XLOCNUM
C:\PROGRAM FILES (X86)\MICROSOFT VISUAL STUDIO 14.0\VC\INCLUDE\CLIMITS
C:\PROGRAM FILES (X86)\MICROSOFT VISUAL STUDIO 14.0\VC\INCLUDE\CMATH
C:\PROGRAM FILES (X86)\WINDOWS KITS\10\INCLUDE\10.0.10240.0\UCRT\MATH.H
C:\PROGRAM FILES (X86)\MICROSOFT VISUAL STUDIO 14.0\VC\INCLUDE\XTGMATH.H
C:\PROGRAM FILES (X86)\MICROSOFT VISUAL STUDIO 14.0\VC\INCLUDE\STREAMBUF
C:\PROGRAM FILES (X86)\MICROSOFT VISUAL STUDIO 14.0\VC\INCLUDE\XIOSBASE
C:\PROGRAM FILES (X86)\MICROSOFT VISUAL STUDIO 14.0\VC\INCLUDE\XLOCALE
C:\PROGRAM FILES (X86)\MICROSOFT VISUAL STUDIO 14.0\VC\INCLUDE\STDEXCEPT
C:\PROGRAM FILES (X86)\MICROSOFT VISUAL STUDIO 14.0\VC\INCLUDE\XSTRING
C:\PROGRAM FILES (X86)\MICROSOFT VISUAL STUDIO 14.0\VC\INCLUDE\XMEMORY0
C:\PROGRAM FILES (X86)\MICROSOFT VISUAL STUDIO 14.0\VC\INCLUDE\CSTDINT
C:\PROGRAM FILES (X86)\MICROSOFT VISUAL STUDIO 14.0\VC\INCLUDE\STDINT.H
C:\PROGRAM FILES (X86)\MICROSOFT VISUAL STUDIO 14.0\VC\INCLUDE\LIMITS
C:\PROGRAM FILES (X86)\MICROSOFT VISUAL STUDIO 14.0\VC\INCLUDE\YMATH.H
C:\PROGRAM FILES (X86)\MICROSOFT VISUAL STUDIO 14.0\VC\INCLUDE\CFLOAT
C:\PROGRAM FILES (X86)\WINDOWS KITS\10\INCLUDE\10.0.10240.0\UCRT\FLOAT.H
C:\PROGRAM FILES (X86)\MICROSOFT VISUAL STUDIO 14.0\VC\INCLUDE\NEW
C:\PROGRAM FILES (X86)\MICROSOFT VISUAL STUDIO 14.0\VC\INCLUDE\XUTILITY
C:\PROGRAM FILES (X86)\MICROSOFT VISUAL STUDIO 14.0\VC\INCLUDE\UTILITY
C:\PROGRAM FILES (X86)\MICROSOFT VISUAL STUDIO 14.0\VC\INCLUDE\XATOMIC0.H
C:\PROGRAM FILES (X86)\MICROSOFT VISUAL STUDIO 14.0\VC\INCLUDE\INTRIN.H
C:\PROGRAM FILES (X86)\MICROSOFT VISUAL STUDIO 14.0\VC\INCLUDE\SETJMP.H
C:\PROGRAM FILES (X86)\MICROSOFT VISUAL STUDIO 14.0\VC\INCLUDE\IMMINTRIN.H
C:\PROGRAM FILES (X86)\MICROSOFT VISUAL STUDIO 14.0\VC\INCLUDE\WMMINTRIN.H
C:\PROGRAM FILES (X86)\MICROSOFT VISUAL STUDIO 14.0\VC\INCLUDE\NMMINTRIN.H
C:\PROGRAM FILES (X86)\MICROSOFT VISUAL STUDIO 14.0\VC\INCLUDE\SMMINTRIN.H
C:\PROGRAM FILES (X86)\MICROSOFT VISUAL STUDIO 14.0\VC\INCLUDE\TMMINTRIN.H
C:\PROGRAM FILES (X86)\MICROSOFT VISUAL STUDIO 14.0\VC\INCLUDE\PMMINTRIN.H
C:\PROGRAM FILES (X86)\MICROSOFT VISUAL STUDIO 14.0\VC\INCLUDE\EMMINTRIN.H
C:\PROGRAM FILES (X86)\MICROSOFT VISUAL STUDIO 14.0\VC\INCLUDE\XMMINTRIN.H
C:\PROGRAM FILES (X86)\MICROSOFT VISUAL STUDIO 14.0\VC\INCLUDE\MMINTRIN.H
C:\PROGRAM FILES (X86)\MICROSOFT VISUAL STUDIO 14.0\VC\INCLUDE\AMMINTRIN.H
C:\PROGRAM FILES (X86)\MICROSOFT VISUAL STUDIO 14.0\VC\INCLUDE\MM3DNOW.H
C:\PROGRAM FILES (X86)\MICROSOFT VISUAL STUDIO 14.0\VC\INCLUDE\XLOCINFO
C:\PROGRAM FILES (X86)\MICROSOFT VISUAL STUDIO 14.0\VC\INCLUDE\XLOCINFO.H
C:\PROGRAM FILES (X86)\WINDOWS KITS\10\INCLUDE\10.0.10240.0\UCRT\CTYPE.H
C:\PROGRAM FILES (X86)\WINDOWS KITS\10\INCLUDE\10.0.10240.0\UCRT\LOCALE.H
C:\PROGRAM FILES (X86)\MICROSOFT VISUAL STUDIO 14.0\VC\INCLUDE\XFACET
C:\PROGRAM FILES (X86)\MICROSOFT VISUAL STUDIO 14.0\VC\INCLUDE\SYSTEM_ERROR
C:\PROGRAM FILES (X86)\MICROSOFT VISUAL STUDIO 14.0\VC\INCLUDE\CERRNO
C:\PROGRAM FILES (X86)\WINDOWS KITS\10\INCLUDE\10.0.10240.0\UCRT\SHARE.H
C:\BOOST\BOOST_1_61_0\BOOST\TYPE_TRAITS\REMOVE_CV.HPP
C:\BOOST\BOOST_1_61_0\BOOST\TEST\DETAIL\WORKAROUND.HPP
C:\PROGRAM FILES (X86)\MICROSOFT VISUAL STUDIO 14.0\VC\INCLUDE\ITERATOR
C:\BOOST\BOOST_1_61_0\BOOST\TEST\DETAIL\LOG_LEVEL.HPP
C:\BOOST\BOOST_1_61_0\BOOST\TEST\UTILS\WRAP_STRINGSTREAM.HPP
C:\PROGRAM FILES (X86)\MICROSOFT VISUAL STUDIO 14.0\VC\INCLUDE\SSTREAM
C:\BOOST\BOOST_1_61_0\BOOST\TEST\UTILS\TRIVIAL_SINGLETON.HPP
C:\BOOST\BOOST_1_61_0\BOOST\TEST\TOOLS\ASSERTION_RESULT.HPP
C:\BOOST\BOOST_1_61_0\BOOST\TEST\UTILS\CLASS_PROPERTIES.HPP
C:\BOOST\BOOST_1_61_0\BOOST\CALL_TRAITS.HPP
C:\BOOST\BOOST_1_61_0\BOOST\DETAIL\CALL_TRAITS.HPP
C:\BOOST\BOOST_1_61_0\BOOST\TYPE_TRAITS\IS_ARITHMETIC.HPP
C:\BOOST\BOOST_1_61_0\BOOST\TYPE_TRAITS\IS_INTEGRAL.HPP
C:\BOOST\BOOST_1_61_0\BOOST\TYPE_TRAITS\INTEGRAL_CONSTANT.HPP
C:\BOOST\BOOST_1_61_0\BOOST\TYPE_TRAITS\IS_FLOATING_POINT.HPP
C:\BOOST\BOOST_1_61_0\BOOST\TYPE_TRAITS\IS_ENUM.HPP
C:\BOOST\BOOST_1_61_0\BOOST\TYPE_TRAITS\INTRINSICS.HPP
C:\BOOST\BOOST_1_61_0\BOOST\TYPE_TRAITS\IS_POINTER.HPP
C:\BOOST\BOOST_1_61_0\BOOST\TYPE_TRAITS\ADD_POINTER.HPP
C:\BOOST\BOOST_1_61_0\BOOST\TYPE_TRAITS\REMOVE_REFERENCE.HPP
C:\BOOST\BOOST_1_61_0\BOOST\UTILITY\ADDRESSOF.HPP
C:\BOOST\BOOST_1_61_0\BOOST\CORE\ADDRESSOF.HPP
C:\BOOST\BOOST_1_61_0\BOOST\SHARED_PTR.HPP
C:\BOOST\BOOST_1_61_0\BOOST\SMART_PTR\SHARED_PTR.HPP
C:\BOOST\BOOST_1_61_0\BOOST\CONFIG\NO_TR1\MEMORY.HPP
C:\PROGRAM FILES (X86)\MICROSOFT VISUAL STUDIO 14.0\VC\INCLUDE\MEMORY
C:\PROGRAM FILES (X86)\MICROSOFT VISUAL STUDIO 14.0\VC\INCLUDE\XMEMORY
C:\BOOST\BOOST_1_61_0\BOOST\ASSERT.HPP
C:\PROGRAM FILES (X86)\WINDOWS KITS\10\INCLUDE\10.0.10240.0\UCRT\ASSERT.H
C:\BOOST\BOOST_1_61_0\BOOST\CHECKED_DELETE.HPP
C:\BOOST\BOOST_1_61_0\BOOST\CORE\CHECKED_DELETE.HPP
C:\BOOST\BOOST_1_61_0\BOOST\THROW_EXCEPTION.HPP
C:\BOOST\BOOST_1_61_0\BOOST\EXCEPTION\EXCEPTION.HPP
C:\BOOST\BOOST_1_61_0\BOOST\CURRENT_FUNCTION.HPP
C:\BOOST\BOOST_1_61_0\BOOST\SMART_PTR\DETAIL\SHARED_COUNT.HPP
C:\BOOST\BOOST_1_61_0\BOOST\SMART_PTR\BAD_WEAK_PTR.HPP
C:\BOOST\BOOST_1_61_0\BOOST\SMART_PTR\DETAIL\SP_COUNTED_BASE.HPP
C:\BOOST\BOOST_1_61_0\BOOST\SMART_PTR\DETAIL\SP_HAS_SYNC.HPP
C:\BOOST\BOOST_1_61_0\BOOST\SMART_PTR\DETAIL\SP_COUNTED_BASE_W32.HPP
C:\BOOST\BOOST_1_61_0\BOOST\SMART_PTR\DETAIL\SP_INTERLOCKED.HPP
C:\BOOST\BOOST_1_61_0\BOOST\DETAIL\SP_TYPEINFO.HPP
C:\BOOST\BOOST_1_61_0\BOOST\CORE\TYPEINFO.HPP
C:\BOOST\BOOST_1_61_0\BOOST\CORE\DEMANGLE.HPP
C:\BOOST\BOOST_1_61_0\BOOST\SMART_PTR\DETAIL\SP_COUNTED_IMPL.HPP
C:\BOOST\BOOST_1_61_0\BOOST\SMART_PTR\DETAIL\SP_DISABLE_DEPRECATED.HPP
C:\PROGRAM FILES (X86)\MICROSOFT VISUAL STUDIO 14.0\VC\INCLUDE\FUNCTIONAL
C:\PROGRAM FILES (X86)\MICROSOFT VISUAL STUDIO 14.0\VC\INCLUDE\XFUNCTIONAL
C:\PROGRAM FILES (X86)\MICROSOFT VISUAL STUDIO 14.0\VC\INCLUDE\TUPLE
C:\BOOST\BOOST_1_61_0\BOOST\SMART_PTR\DETAIL\SP_CONVERTIBLE.HPP
C:\BOOST\BOOST_1_61_0\BOOST\SMART_PTR\DETAIL\SP_NULLPTR_T.HPP
C:\BOOST\BOOST_1_61_0\BOOST\SMART_PTR\DETAIL\SPINLOCK_POOL.HPP
C:\BOOST\BOOST_1_61_0\BOOST\SMART_PTR\DETAIL\SPINLOCK.HPP
C:\BOOST\BOOST_1_61_0\BOOST\SMART_PTR\DETAIL\SPINLOCK_W32.HPP
C:\BOOST\BOOST_1_61_0\BOOST\SMART_PTR\DETAIL\YIELD_K.HPP
C:\BOOST\BOOST_1_61_0\BOOST\PREDEF.H
C:\BOOST\BOOST_1_61_0\BOOST\PREDEF\LANGUAGE.H
C:\BOOST\BOOST_1_61_0\BOOST\PREDEF\LANGUAGE\STDC.H
C:\BOOST\BOOST_1_61_0\BOOST\PREDEF\VERSION_NUMBER.H
C:\BOOST\BOOST_1_61_0\BOOST\PREDEF\MAKE.H
C:\BOOST\BOOST_1_61_0\BOOST\PREDEF\DETAIL\TEST.H
C:\BOOST\BOOST_1_61_0\BOOST\PREDEF\LANGUAGE\STDCPP.H
C:\BOOST\BOOST_1_61_0\BOOST\PREDEF\LANGUAGE\OBJC.H
C:\BOOST\BOOST_1_61_0\BOOST\PREDEF\ARCHITECTURE.H
C:\BOOST\BOOST_1_61_0\BOOST\PREDEF\ARCHITECTURE\ALPHA.H
C:\BOOST\BOOST_1_61_0\BOOST\PREDEF\ARCHITECTURE\ARM.H
C:\BOOST\BOOST_1_61_0\BOOST\PREDEF\ARCHITECTURE\BLACKFIN.H
C:\BOOST\BOOST_1_61_0\BOOST\PREDEF\ARCHITECTURE\CONVEX.H
C:\BOOST\BOOST_1_61_0\BOOST\PREDEF\ARCHITECTURE\IA64.H
C:\BOOST\BOOST_1_61_0\BOOST\PREDEF\ARCHITECTURE\M68K.H
C:\BOOST\BOOST_1_61_0\BOOST\PREDEF\ARCHITECTURE\MIPS.H
C:\BOOST\BOOST_1_61_0\BOOST\PREDEF\ARCHITECTURE\PARISC.H
C:\BOOST\BOOST_1_61_0\BOOST\PREDEF\ARCHITECTURE\PPC.H
C:\BOOST\BOOST_1_61_0\BOOST\PREDEF\ARCHITECTURE\PYRAMID.H
C:\BOOST\BOOST_1_61_0\BOOST\PREDEF\ARCHITECTURE\RS6K.H
C:\BOOST\BOOST_1_61_0\BOOST\PREDEF\ARCHITECTURE\SPARC.H
C:\BOOST\BOOST_1_61_0\BOOST\PREDEF\ARCHITECTURE\SUPERH.H
C:\BOOST\BOOST_1_61_0\BOOST\PREDEF\ARCHITECTURE\SYS370.H
C:\BOOST\BOOST_1_61_0\BOOST\PREDEF\ARCHITECTURE\SYS390.H
C:\BOOST\BOOST_1_61_0\BOOST\PREDEF\ARCHITECTURE\X86.H
C:\BOOST\BOOST_1_61_0\BOOST\PREDEF\ARCHITECTURE\X86\32.H
C:\BOOST\BOOST_1_61_0\BOOST\PREDEF\ARCHITECTURE\X86\64.H
C:\BOOST\BOOST_1_61_0\BOOST\PREDEF\ARCHITECTURE\Z.H
C:\BOOST\BOOST_1_61_0\BOOST\PREDEF\COMPILER.H
C:\BOOST\BOOST_1_61_0\BOOST\PREDEF\COMPILER\BORLAND.H
C:\BOOST\BOOST_1_61_0\BOOST\PREDEF\COMPILER\CLANG.H
C:\BOOST\BOOST_1_61_0\BOOST\PREDEF\COMPILER\COMEAU.H
C:\BOOST\BOOST_1_61_0\BOOST\PREDEF\COMPILER\COMPAQ.H
C:\BOOST\BOOST_1_61_0\BOOST\PREDEF\COMPILER\DIAB.H
C:\BOOST\BOOST_1_61_0\BOOST\PREDEF\COMPILER\DIGITALMARS.H
C:\BOOST\BOOST_1_61_0\BOOST\PREDEF\COMPILER\DIGNUS.H
C:\BOOST\BOOST_1_61_0\BOOST\PREDEF\COMPILER\EDG.H
C:\BOOST\BOOST_1_61_0\BOOST\PREDEF\COMPILER\EKOPATH.H
C:\BOOST\BOOST_1_61_0\BOOST\PREDEF\COMPILER\GCC_XML.H
C:\BOOST\BOOST_1_61_0\BOOST\PREDEF\COMPILER\GCC.H
C:\BOOST\BOOST_1_61_0\BOOST\PREDEF\COMPILER\GREENHILLS.H
C:\BOOST\BOOST_1_61_0\BOOST\PREDEF\COMPILER\HP_ACC.H
C:\BOOST\BOOST_1_61_0\BOOST\PREDEF\COMPILER\IAR.H
C:\BOOST\BOOST_1_61_0\BOOST\PREDEF\COMPILER\IBM.H
C:\BOOST\BOOST_1_61_0\BOOST\PREDEF\COMPILER\INTEL.H
C:\BOOST\BOOST_1_61_0\BOOST\PREDEF\COMPILER\KAI.H
C:\BOOST\BOOST_1_61_0\BOOST\PREDEF\COMPILER\LLVM.H
C:\BOOST\BOOST_1_61_0\BOOST\PREDEF\COMPILER\METAWARE.H
C:\BOOST\BOOST_1_61_0\BOOST\PREDEF\COMPILER\METROWERKS.H
C:\BOOST\BOOST_1_61_0\BOOST\PREDEF\COMPILER\MICROTEC.H
C:\BOOST\BOOST_1_61_0\BOOST\PREDEF\COMPILER\MPW.H
C:\BOOST\BOOST_1_61_0\BOOST\PREDEF\COMPILER\PALM.H
C:\BOOST\BOOST_1_61_0\BOOST\PREDEF\COMPILER\PGI.H
C:\BOOST\BOOST_1_61_0\BOOST\PREDEF\COMPILER\SGI_MIPSPRO.H
C:\BOOST\BOOST_1_61_0\BOOST\PREDEF\COMPILER\SUNPRO.H
C:\BOOST\BOOST_1_61_0\BOOST\PREDEF\COMPILER\TENDRA.H
C:\BOOST\BOOST_1_61_0\BOOST\PREDEF\COMPILER\VISUALC.H
C:\BOOST\BOOST_1_61_0\BOOST\PREDEF\DETAIL\COMP_DETECTED.H
C:\BOOST\BOOST_1_61_0\BOOST\PREDEF\COMPILER\WATCOM.H
C:\BOOST\BOOST_1_61_0\BOOST\PREDEF\LIBRARY.H
C:\BOOST\BOOST_1_61_0\BOOST\PREDEF\LIBRARY\C.H
C:\BOOST\BOOST_1_61_0\BOOST\PREDEF\LIBRARY\C\_PREFIX.H
C:\BOOST\BOOST_1_61_0\BOOST\PREDEF\DETAIL\_CASSERT.H
C:\PROGRAM FILES (X86)\MICROSOFT VISUAL STUDIO 14.0\VC\INCLUDE\CASSERT
C:\BOOST\BOOST_1_61_0\BOOST\PREDEF\LIBRARY\C\GNU.H
C:\BOOST\BOOST_1_61_0\BOOST\PREDEF\LIBRARY\C\UC.H
C:\BOOST\BOOST_1_61_0\BOOST\PREDEF\LIBRARY\C\VMS.H
C:\BOOST\BOOST_1_61_0\BOOST\PREDEF\LIBRARY\C\ZOS.H
C:\BOOST\BOOST_1_61_0\BOOST\PREDEF\LIBRARY\STD.H
C:\BOOST\BOOST_1_61_0\BOOST\PREDEF\LIBRARY\STD\_PREFIX.H
C:\BOOST\BOOST_1_61_0\BOOST\PREDEF\DETAIL\_EXCEPTION.H
C:\BOOST\BOOST_1_61_0\BOOST\PREDEF\LIBRARY\STD\CXX.H
C:\BOOST\BOOST_1_61_0\BOOST\PREDEF\LIBRARY\STD\DINKUMWARE.H
C:\BOOST\BOOST_1_61_0\BOOST\PREDEF\LIBRARY\STD\LIBCOMO.H
C:\BOOST\BOOST_1_61_0\BOOST\PREDEF\LIBRARY\STD\MODENA.H
C:\BOOST\BOOST_1_61_0\BOOST\PREDEF\LIBRARY\STD\MSL.H
C:\BOOST\BOOST_1_61_0\BOOST\PREDEF\LIBRARY\STD\ROGUEWAVE.H
C:\BOOST\BOOST_1_61_0\BOOST\PREDEF\LIBRARY\STD\SGI.H
C:\BOOST\BOOST_1_61_0\BOOST\PREDEF\LIBRARY\STD\STDCPP3.H
C:\BOOST\BOOST_1_61_0\BOOST\PREDEF\LIBRARY\STD\STLPORT.H
C:\BOOST\BOOST_1_61_0\BOOST\PREDEF\LIBRARY\STD\VACPP.H
C:\BOOST\BOOST_1_61_0\BOOST\PREDEF\OS.H
C:\BOOST\BOOST_1_61_0\BOOST\PREDEF\OS\AIX.H
C:\BOOST\BOOST_1_61_0\BOOST\PREDEF\OS\AMIGAOS.H
C:\BOOST\BOOST_1_61_0\BOOST\PREDEF\OS\ANDROID.H
C:\BOOST\BOOST_1_61_0\BOOST\PREDEF\OS\BEOS.H
C:\BOOST\BOOST_1_61_0\BOOST\PREDEF\OS\BSD.H
C:\BOOST\BOOST_1_61_0\BOOST\PREDEF\OS\MACOS.H
C:\BOOST\BOOST_1_61_0\BOOST\PREDEF\OS\IOS.H
C:\BOOST\BOOST_1_61_0\BOOST\PREDEF\OS\BSD\BSDI.H
C:\BOOST\BOOST_1_61_0\BOOST\PREDEF\OS\BSD\DRAGONFLY.H
C:\BOOST\BOOST_1_61_0\BOOST\PREDEF\OS\BSD\FREE.H
C:\BOOST\BOOST_1_61_0\BOOST\PREDEF\OS\BSD\OPEN.H
C:\BOOST\BOOST_1_61_0\BOOST\PREDEF\OS\BSD\NET.H
C:\BOOST\BOOST_1_61_0\BOOST\PREDEF\OS\CYGWIN.H
C:\BOOST\BOOST_1_61_0\BOOST\PREDEF\OS\HAIKU.H
C:\BOOST\BOOST_1_61_0\BOOST\PREDEF\OS\HPUX.H
C:\BOOST\BOOST_1_61_0\BOOST\PREDEF\OS\IRIX.H
C:\BOOST\BOOST_1_61_0\BOOST\PREDEF\OS\LINUX.H
C:\BOOST\BOOST_1_61_0\BOOST\PREDEF\OS\OS400.H
C:\BOOST\BOOST_1_61_0\BOOST\PREDEF\OS\QNXNTO.H
C:\BOOST\BOOST_1_61_0\BOOST\PREDEF\OS\SOLARIS.H
C:\BOOST\BOOST_1_61_0\BOOST\PREDEF\OS\UNIX.H
C:\BOOST\BOOST_1_61_0\BOOST\PREDEF\OS\VMS.H
C:\BOOST\BOOST_1_61_0\BOOST\PREDEF\OS\WINDOWS.H
C:\BOOST\BOOST_1_61_0\BOOST\PREDEF\DETAIL\OS_DETECTED.H
C:\BOOST\BOOST_1_61_0\BOOST\PREDEF\OTHER.H
C:\BOOST\BOOST_1_61_0\BOOST\PREDEF\OTHER\ENDIAN.H
C:\BOOST\BOOST_1_61_0\BOOST\PREDEF\PLATFORM.H
C:\BOOST\BOOST_1_61_0\BOOST\PREDEF\PLATFORM\MINGW.H
C:\BOOST\BOOST_1_61_0\BOOST\PREDEF\PLATFORM\WINDOWS_DESKTOP.H
C:\BOOST\BOOST_1_61_0\BOOST\PREDEF\DETAIL\PLATFORM_DETECTED.H
C:\BOOST\BOOST_1_61_0\BOOST\PREDEF\PLATFORM\WINDOWS_STORE.H
C:\BOOST\BOOST_1_61_0\BOOST\PREDEF\PLATFORM\WINDOWS_PHONE.H
C:\BOOST\BOOST_1_61_0\BOOST\PREDEF\PLATFORM\WINDOWS_RUNTIME.H
C:\BOOST\BOOST_1_61_0\BOOST\PREDEF\HARDWARE.H
C:\BOOST\BOOST_1_61_0\BOOST\PREDEF\HARDWARE\SIMD.H
C:\BOOST\BOOST_1_61_0\BOOST\PREDEF\HARDWARE\SIMD\X86.H
C:\BOOST\BOOST_1_61_0\BOOST\PREDEF\HARDWARE\SIMD\X86\VERSIONS.H
C:\BOOST\BOOST_1_61_0\BOOST\PREDEF\HARDWARE\SIMD\X86_AMD.H
C:\BOOST\BOOST_1_61_0\BOOST\PREDEF\HARDWARE\SIMD\X86_AMD\VERSIONS.H
C:\BOOST\BOOST_1_61_0\BOOST\PREDEF\HARDWARE\SIMD\ARM.H
C:\BOOST\BOOST_1_61_0\BOOST\PREDEF\HARDWARE\SIMD\ARM\VERSIONS.H
C:\BOOST\BOOST_1_61_0\BOOST\PREDEF\HARDWARE\SIMD\PPC.H
C:\BOOST\BOOST_1_61_0\BOOST\PREDEF\HARDWARE\SIMD\PPC\VERSIONS.H
C:\BOOST\BOOST_1_61_0\BOOST\PREDEF\VERSION.H
C:\PROGRAM FILES (X86)\MICROSOFT VISUAL STUDIO 14.0\VC\INCLUDE\ALGORITHM
C:\BOOST\BOOST_1_61_0\BOOST\SMART_PTR\DETAIL\OPERATOR_BOOL.HPP
C:\BOOST\BOOST_1_61_0\BOOST\TEST\TOOLS\FLOATING_POINT_COMPARISON.HPP
C:\BOOST\BOOST_1_61_0\BOOST\LIMITS.HPP
C:\BOOST\BOOST_1_61_0\BOOST\STATIC_ASSERT.HPP
C:\BOOST\BOOST_1_61_0\BOOST\MPL\BOOL.HPP
C:\BOOST\BOOST_1_61_0\BOOST\MPL\BOOL_FWD.HPP
C:\BOOST\BOOST_1_61_0\BOOST\MPL\AUX_\ADL_BARRIER.HPP
C:\BOOST\BOOST_1_61_0\BOOST\MPL\AUX_\CONFIG\ADL.HPP
C:\BOOST\BOOST_1_61_0\BOOST\MPL\AUX_\CONFIG\MSVC.HPP
C:\BOOST\BOOST_1_61_0\BOOST\MPL\AUX_\CONFIG\INTEL.HPP
C:\BOOST\BOOST_1_61_0\BOOST\MPL\AUX_\CONFIG\GCC.HPP
C:\BOOST\BOOST_1_61_0\BOOST\MPL\AUX_\CONFIG\WORKAROUND.HPP
C:\BOOST\BOOST_1_61_0\BOOST\MPL\INTEGRAL_C_TAG.HPP
C:\BOOST\BOOST_1_61_0\BOOST\MPL\AUX_\CONFIG\STATIC_CONSTANT.HPP
C:\BOOST\BOOST_1_61_0\BOOST\TYPE_TRAITS\IS_ARRAY.HPP
C:\BOOST\BOOST_1_61_0\BOOST\TYPE_TRAITS\CONDITIONAL.HPP
C:\BOOST\BOOST_1_61_0\BOOST\UTILITY\ENABLE_IF.HPP
C:\BOOST\BOOST_1_61_0\BOOST\CORE\ENABLE_IF.HPP
C:\BOOST\BOOST_1_61_0\BOOST\TEST\TOOLS\DETAIL\FWD.HPP
C:\BOOST\BOOST_1_61_0\BOOST\TEST\UTILS\BASIC_CSTRING\IO.HPP
C:\BOOST\BOOST_1_61_0\BOOST\TEST\TOOLS\DETAIL\PRINT_HELPER.HPP
C:\BOOST\BOOST_1_61_0\BOOST\MPL\OR.HPP
C:\BOOST\BOOST_1_61_0\BOOST\MPL\AUX_\CONFIG\USE_PREPROCESSED.HPP
C:\BOOST\BOOST_1_61_0\BOOST\MPL\AUX_\NESTED_TYPE_WKND.HPP
C:\BOOST\BOOST_1_61_0\BOOST\MPL\AUX_\NA_SPEC.HPP
C:\BOOST\BOOST_1_61_0\BOOST\MPL\LAMBDA_FWD.HPP
C:\BOOST\BOOST_1_61_0\BOOST\MPL\VOID_FWD.HPP
C:\BOOST\BOOST_1_61_0\BOOST\MPL\AUX_\NA.HPP
C:\BOOST\BOOST_1_61_0\BOOST\MPL\AUX_\NA_FWD.HPP
C:\BOOST\BOOST_1_61_0\BOOST\MPL\AUX_\CONFIG\CTPS.HPP
C:\BOOST\BOOST_1_61_0\BOOST\MPL\AUX_\CONFIG\LAMBDA.HPP
C:\BOOST\BOOST_1_61_0\BOOST\MPL\AUX_\CONFIG\TTP.HPP
C:\BOOST\BOOST_1_61_0\BOOST\MPL\INT.HPP
C:\BOOST\BOOST_1_61_0\BOOST\MPL\INT_FWD.HPP
C:\BOOST\BOOST_1_61_0\BOOST\MPL\AUX_\NTTP_DECL.HPP
C:\BOOST\BOOST_1_61_0\BOOST\MPL\AUX_\CONFIG\NTTP.HPP
C:\BOOST\BOOST_1_61_0\BOOST\MPL\AUX_\INTEGRAL_WRAPPER.HPP
C:\BOOST\BOOST_1_61_0\BOOST\MPL\AUX_\STATIC_CAST.HPP
C:\BOOST\BOOST_1_61_0\BOOST\MPL\AUX_\LAMBDA_ARITY_PARAM.HPP
C:\BOOST\BOOST_1_61_0\BOOST\MPL\AUX_\TEMPLATE_ARITY_FWD.HPP
C:\BOOST\BOOST_1_61_0\BOOST\MPL\AUX_\ARITY.HPP
C:\BOOST\BOOST_1_61_0\BOOST\MPL\AUX_\CONFIG\DTP.HPP
C:\BOOST\BOOST_1_61_0\BOOST\MPL\AUX_\PREPROCESSOR\PARAMS.HPP
C:\BOOST\BOOST_1_61_0\BOOST\MPL\AUX_\CONFIG\PREPROCESSOR.HPP
C:\BOOST\BOOST_1_61_0\BOOST\PREPROCESSOR\COMMA_IF.HPP
C:\BOOST\BOOST_1_61_0\BOOST\PREPROCESSOR\PUNCTUATION\COMMA_IF.HPP
C:\BOOST\BOOST_1_61_0\BOOST\PREPROCESSOR\PUNCTUATION\COMMA.HPP
C:\BOOST\BOOST_1_61_0\BOOST\PREPROCESSOR\REPEAT.HPP
C:\BOOST\BOOST_1_61_0\BOOST\PREPROCESSOR\REPETITION\REPEAT.HPP
C:\BOOST\BOOST_1_61_0\BOOST\PREPROCESSOR\INC.HPP
C:\BOOST\BOOST_1_61_0\BOOST\PREPROCESSOR\ARITHMETIC\INC.HPP
C:\BOOST\BOOST_1_61_0\BOOST\MPL\AUX_\PREPROCESSOR\ENUM.HPP
C:\BOOST\BOOST_1_61_0\BOOST\MPL\AUX_\PREPROCESSOR\DEF_PARAMS_TAIL.HPP
C:\BOOST\BOOST_1_61_0\BOOST\MPL\LIMITS\ARITY.HPP
C:\BOOST\BOOST_1_61_0\BOOST\PREPROCESSOR\LOGICAL\AND.HPP
C:\BOOST\BOOST_1_61_0\BOOST\PREPROCESSOR\LOGICAL\BITAND.HPP
C:\BOOST\BOOST_1_61_0\BOOST\PREPROCESSOR\IDENTITY.HPP
C:\BOOST\BOOST_1_61_0\BOOST\PREPROCESSOR\FACILITIES\IDENTITY.HPP
C:\BOOST\BOOST_1_61_0\BOOST\PREPROCESSOR\EMPTY.HPP
C:\BOOST\BOOST_1_61_0\BOOST\PREPROCESSOR\ARITHMETIC\ADD.HPP
C:\BOOST\BOOST_1_61_0\BOOST\PREPROCESSOR\CONTROL\WHILE.HPP
C:\BOOST\BOOST_1_61_0\BOOST\PREPROCESSOR\LIST\FOLD_LEFT.HPP
C:\BOOST\BOOST_1_61_0\BOOST\PREPROCESSOR\LIST\DETAIL\FOLD_LEFT.HPP
C:\BOOST\BOOST_1_61_0\BOOST\PREPROCESSOR\CONTROL\EXPR_IIF.HPP
C:\BOOST\BOOST_1_61_0\BOOST\PREPROCESSOR\LIST\ADT.HPP
C:\BOOST\BOOST_1_61_0\BOOST\PREPROCESSOR\DETAIL\IS_BINARY.HPP
C:\BOOST\BOOST_1_61_0\BOOST\PREPROCESSOR\DETAIL\CHECK.HPP
C:\BOOST\BOOST_1_61_0\BOOST\PREPROCESSOR\LIST\FOLD_RIGHT.HPP
C:\BOOST\BOOST_1_61_0\BOOST\PREPROCESSOR\LIST\DETAIL\FOLD_RIGHT.HPP
C:\BOOST\BOOST_1_61_0\BOOST\PREPROCESSOR\LIST\REVERSE.HPP
C:\BOOST\BOOST_1_61_0\BOOST\PREPROCESSOR\CONTROL\DETAIL\MSVC\WHILE.HPP
C:\BOOST\BOOST_1_61_0\BOOST\PREPROCESSOR\ARITHMETIC\SUB.HPP
C:\BOOST\BOOST_1_61_0\BOOST\MPL\AUX_\CONFIG\ETI.HPP
C:\BOOST\BOOST_1_61_0\BOOST\MPL\AUX_\CONFIG\OVERLOAD_RESOLUTION.HPP
C:\BOOST\BOOST_1_61_0\BOOST\MPL\AUX_\LAMBDA_SUPPORT.HPP
C:\BOOST\BOOST_1_61_0\BOOST\MPL\AUX_\INCLUDE_PREPROCESSED.HPP
C:\BOOST\BOOST_1_61_0\BOOST\MPL\AUX_\CONFIG\COMPILER.HPP
C:\BOOST\BOOST_1_61_0\BOOST\PREPROCESSOR\STRINGIZE.HPP
C:\BOOST\BOOST_1_61_0\BOOST\MPL\AUX_\PREPROCESSED\PLAIN\OR.HPP
C:\BOOST\BOOST_1_61_0\BOOST\TYPE_TRAITS\IS_FUNCTION.HPP
C:\BOOST\BOOST_1_61_0\BOOST\TYPE_TRAITS\IS_REFERENCE.HPP
C:\BOOST\BOOST_1_61_0\BOOST\TYPE_TRAITS\IS_LVALUE_REFERENCE.HPP
C:\BOOST\BOOST_1_61_0\BOOST\TYPE_TRAITS\IS_RVALUE_REFERENCE.HPP
C:\BOOST\BOOST_1_61_0\BOOST\TYPE_TRAITS\DETAIL\IS_FUNCTION_PTR_TESTER.HPP
C:\BOOST\BOOST_1_61_0\BOOST\TYPE_TRAITS\DETAIL\YES_NO_TYPE.HPP
C:\BOOST\BOOST_1_61_0\BOOST\TYPE_TRAITS\IS_ABSTRACT.HPP
C:\BOOST\BOOST_1_61_0\BOOST\TYPE_TRAITS\HAS_LEFT_SHIFT.HPP
C:\BOOST\BOOST_1_61_0\BOOST\TYPE_TRAITS\DETAIL\HAS_BINARY_OPERATOR.HPP
C:\BOOST\BOOST_1_61_0\BOOST\TYPE_TRAITS\IS_BASE_OF.HPP
C:\BOOST\BOOST_1_61_0\BOOST\TYPE_TRAITS\IS_BASE_AND_DERIVED.HPP
C:\BOOST\BOOST_1_61_0\BOOST\TYPE_TRAITS\IS_SAME.HPP
C:\BOOST\BOOST_1_61_0\BOOST\TYPE_TRAITS\IS_CLASS.HPP
C:\BOOST\BOOST_1_61_0\BOOST\TYPE_TRAITS\IS_CONST.HPP
C:\BOOST\BOOST_1_61_0\BOOST\TYPE_TRAITS\IS_CONVERTIBLE.HPP
C:\BOOST\BOOST_1_61_0\BOOST\TYPE_TRAITS\IS_FUNDAMENTAL.HPP
C:\BOOST\BOOST_1_61_0\BOOST\TYPE_TRAITS\IS_VOID.HPP
C:\BOOST\BOOST_1_61_0\BOOST\TYPE_TRAITS\REMOVE_POINTER.HPP
C:\BOOST\BOOST_1_61_0\BOOST\NUMERIC\CONVERSION\CONVERSION_TRAITS.HPP
C:\BOOST\BOOST_1_61_0\BOOST\NUMERIC\CONVERSION\DETAIL\CONVERSION_TRAITS.HPP
C:\BOOST\BOOST_1_61_0\BOOST\NUMERIC\CONVERSION\DETAIL\META.HPP
C:\BOOST\BOOST_1_61_0\BOOST\MPL\IF.HPP
C:\BOOST\BOOST_1_61_0\BOOST\MPL\AUX_\VALUE_WKND.HPP
C:\BOOST\BOOST_1_61_0\BOOST\MPL\AUX_\CONFIG\INTEGRAL.HPP
C:\BOOST\BOOST_1_61_0\BOOST\MPL\EVAL_IF.HPP
C:\BOOST\BOOST_1_61_0\BOOST\MPL\EQUAL_TO.HPP
C:\BOOST\BOOST_1_61_0\BOOST\MPL\AUX_\COMPARISON_OP.HPP
C:\BOOST\BOOST_1_61_0\BOOST\MPL\AUX_\NUMERIC_OP.HPP
C:\BOOST\BOOST_1_61_0\BOOST\MPL\NUMERIC_CAST.HPP
C:\BOOST\BOOST_1_61_0\BOOST\MPL\APPLY_WRAP.HPP
C:\BOOST\BOOST_1_61_0\BOOST\MPL\AUX_\HAS_APPLY.HPP
C:\BOOST\BOOST_1_61_0\BOOST\MPL\HAS_XXX.HPP
C:\BOOST\BOOST_1_61_0\BOOST\MPL\AUX_\TYPE_WRAPPER.HPP
C:\BOOST\BOOST_1_61_0\BOOST\MPL\AUX_\YES_NO.HPP
C:\BOOST\BOOST_1_61_0\BOOST\MPL\AUX_\CONFIG\ARRAYS.HPP
C:\BOOST\BOOST_1_61_0\BOOST\MPL\AUX_\CONFIG\HAS_XXX.HPP
C:\BOOST\BOOST_1_61_0\BOOST\MPL\AUX_\CONFIG\MSVC_TYPENAME.HPP
C:\BOOST\BOOST_1_61_0\BOOST\PREPROCESSOR\ARRAY\ELEM.HPP
C:\BOOST\BOOST_1_61_0\BOOST\PREPROCESSOR\ARRAY\DATA.HPP
C:\BOOST\BOOST_1_61_0\BOOST\PREPROCESSOR\ARRAY\SIZE.HPP
C:\BOOST\BOOST_1_61_0\BOOST\PREPROCESSOR\REPETITION\ENUM_PARAMS.HPP
C:\BOOST\BOOST_1_61_0\BOOST\PREPROCESSOR\REPETITION\ENUM_TRAILING_PARAMS.HPP
C:\BOOST\BOOST_1_61_0\BOOST\MPL\AUX_\CONFIG\HAS_APPLY.HPP
C:\BOOST\BOOST_1_61_0\BOOST\MPL\AUX_\MSVC_NEVER_TRUE.HPP
C:\BOOST\BOOST_1_61_0\BOOST\MPL\AUX_\PREPROCESSED\PLAIN\APPLY_WRAP.HPP
C:\BOOST\BOOST_1_61_0\BOOST\MPL\TAG.HPP
C:\BOOST\BOOST_1_61_0\BOOST\MPL\VOID.HPP
C:\BOOST\BOOST_1_61_0\BOOST\MPL\AUX_\HAS_TAG.HPP
C:\BOOST\BOOST_1_61_0\BOOST\MPL\AUX_\NUMERIC_CAST_UTILS.HPP
C:\BOOST\BOOST_1_61_0\BOOST\MPL\AUX_\CONFIG\FORWARDING.HPP
C:\BOOST\BOOST_1_61_0\BOOST\MPL\AUX_\MSVC_ETI_BASE.HPP
C:\BOOST\BOOST_1_61_0\BOOST\MPL\AUX_\IS_MSVC_ETI_ARG.HPP
C:\BOOST\BOOST_1_61_0\BOOST\MPL\AUX_\PREPROCESSED\PLAIN\EQUAL_TO.HPP
C:\BOOST\BOOST_1_61_0\BOOST\MPL\NOT.HPP
C:\BOOST\BOOST_1_61_0\BOOST\MPL\AND.HPP
C:\BOOST\BOOST_1_61_0\BOOST\MPL\AUX_\PREPROCESSED\PLAIN\AND.HPP
C:\BOOST\BOOST_1_61_0\BOOST\MPL\IDENTITY.HPP
C:\BOOST\BOOST_1_61_0\BOOST\NUMERIC\CONVERSION\DETAIL\INT_FLOAT_MIXTURE.HPP
C:\BOOST\BOOST_1_61_0\BOOST\NUMERIC\CONVERSION\INT_FLOAT_MIXTURE_ENUM.HPP
C:\BOOST\BOOST_1_61_0\BOOST\MPL\INTEGRAL_C.HPP
C:\BOOST\BOOST_1_61_0\BOOST\MPL\INTEGRAL_C_FWD.HPP
C:\BOOST\BOOST_1_61_0\BOOST\NUMERIC\CONVERSION\DETAIL\SIGN_MIXTURE.HPP
C:\BOOST\BOOST_1_61_0\BOOST\NUMERIC\CONVERSION\SIGN_MIXTURE_ENUM.HPP
C:\BOOST\BOOST_1_61_0\BOOST\NUMERIC\CONVERSION\DETAIL\UDT_BUILTIN_MIXTURE.HPP
C:\BOOST\BOOST_1_61_0\BOOST\NUMERIC\CONVERSION\UDT_BUILTIN_MIXTURE_ENUM.HPP
C:\BOOST\BOOST_1_61_0\BOOST\NUMERIC\CONVERSION\DETAIL\IS_SUBRANGED.HPP
C:\BOOST\BOOST_1_61_0\BOOST\MPL\MULTIPLIES.HPP
C:\BOOST\BOOST_1_61_0\BOOST\MPL\TIMES.HPP
C:\BOOST\BOOST_1_61_0\BOOST\MPL\AUX_\ARITHMETIC_OP.HPP
C:\BOOST\BOOST_1_61_0\BOOST\MPL\AUX_\LARGEST_INT.HPP
C:\BOOST\BOOST_1_61_0\BOOST\MPL\AUX_\PREPROCESSED\PLAIN\TIMES.HPP
C:\BOOST\BOOST_1_61_0\BOOST\MPL\AUX_\PREPROCESSOR\DEFAULT_PARAMS.HPP
C:\BOOST\BOOST_1_61_0\BOOST\MPL\LESS.HPP
C:\BOOST\BOOST_1_61_0\BOOST\MPL\AUX_\PREPROCESSED\PLAIN\LESS.HPP
C:\BOOST\BOOST_1_61_0\BOOST\TEST\TOOLS\INTERFACE.HPP
C:\BOOST\BOOST_1_61_0\BOOST\TEST\DETAIL\PP_VARIADIC.HPP
C:\BOOST\BOOST_1_61_0\BOOST\PREPROCESSOR\COMPARISON\EQUAL.HPP
C:\BOOST\BOOST_1_61_0\BOOST\PREPROCESSOR\COMPARISON\NOT_EQUAL.HPP
C:\BOOST\BOOST_1_61_0\BOOST\TEST\TOOLS\ASSERTION.HPP
C:\BOOST\BOOST_1_61_0\BOOST\TYPE.HPP
C:\BOOST\BOOST_1_61_0\BOOST\TYPE_TRAITS\DECAY.HPP
C:\BOOST\BOOST_1_61_0\BOOST\TYPE_TRAITS\REMOVE_BOUNDS.HPP
C:\BOOST\BOOST_1_61_0\BOOST\TYPE_TRAITS\REMOVE_EXTENT.HPP
C:\BOOST\BOOST_1_61_0\BOOST\MPL\ASSERT.HPP
C:\BOOST\BOOST_1_61_0\BOOST\MPL\AUX_\CONFIG\GPU.HPP
C:\BOOST\BOOST_1_61_0\BOOST\MPL\AUX_\CONFIG\PP_COUNTER.HPP
C:\BOOST\BOOST_1_61_0\BOOST\UTILITY\DECLVAL.HPP
C:\BOOST\BOOST_1_61_0\BOOST\TYPE_TRAITS\DECLVAL.HPP
C:\BOOST\BOOST_1_61_0\BOOST\TYPE_TRAITS\ADD_RVALUE_REFERENCE.HPP
C:\BOOST\BOOST_1_61_0\BOOST\TYPE_TRAITS\REMOVE_CONST.HPP
C:\BOOST\BOOST_1_61_0\BOOST\TEST\TOOLS\FPC_OP.HPP
C:\BOOST\BOOST_1_61_0\BOOST\TEST\TOOLS\FPC_TOLERANCE.HPP
C:\BOOST\BOOST_1_61_0\BOOST\TEST\TREE\DECORATOR.HPP
C:\BOOST\BOOST_1_61_0\BOOST\TEST\TREE\FIXTURE.HPP
C:\BOOST\BOOST_1_61_0\BOOST\SCOPED_PTR.HPP
C:\BOOST\BOOST_1_61_0\BOOST\SMART_PTR\SCOPED_PTR.HPP
C:\BOOST\BOOST_1_61_0\BOOST\FUNCTION\FUNCTION0.HPP
C:\BOOST\BOOST_1_61_0\BOOST\FUNCTION\DETAIL\MAYBE_INCLUDE.HPP
C:\BOOST\BOOST_1_61_0\BOOST\FUNCTION\FUNCTION_TEMPLATE.HPP
C:\BOOST\BOOST_1_61_0\BOOST\FUNCTION\DETAIL\PROLOGUE.HPP
C:\BOOST\BOOST_1_61_0\BOOST\CONFIG\NO_TR1\FUNCTIONAL.HPP
C:\BOOST\BOOST_1_61_0\BOOST\FUNCTION\FUNCTION_BASE.HPP
C:\BOOST\BOOST_1_61_0\BOOST\INTEGER.HPP
C:\BOOST\BOOST_1_61_0\BOOST\INTEGER_FWD.HPP
C:\BOOST\BOOST_1_61_0\BOOST\CSTDINT.HPP
C:\BOOST\BOOST_1_61_0\BOOST\INTEGER_TRAITS.HPP
C:\BOOST\BOOST_1_61_0\BOOST\TYPE_TRAITS\HAS_TRIVIAL_COPY.HPP
C:\BOOST\BOOST_1_61_0\BOOST\TYPE_TRAITS\IS_POD.HPP
C:\BOOST\BOOST_1_61_0\BOOST\TYPE_TRAITS\IS_SCALAR.HPP
C:\BOOST\BOOST_1_61_0\BOOST\TYPE_TRAITS\IS_MEMBER_POINTER.HPP
C:\BOOST\BOOST_1_61_0\BOOST\TYPE_TRAITS\IS_MEMBER_FUNCTION_POINTER.HPP
C:\BOOST\BOOST_1_61_0\BOOST\TYPE_TRAITS\DETAIL\IS_MEM_FUN_POINTER_TESTER.HPP
C:\BOOST\BOOST_1_61_0\BOOST\TYPE_TRAITS\HAS_TRIVIAL_DESTRUCTOR.HPP
C:\BOOST\BOOST_1_61_0\BOOST\TYPE_TRAITS\IS_VOLATILE.HPP
C:\BOOST\BOOST_1_61_0\BOOST\TYPE_TRAITS\COMPOSITE_TRAITS.HPP
C:\BOOST\BOOST_1_61_0\BOOST\TYPE_TRAITS\IS_UNION.HPP
C:\BOOST\BOOST_1_61_0\BOOST\REF.HPP
C:\BOOST\BOOST_1_61_0\BOOST\CORE\REF.HPP
C:\BOOST\BOOST_1_61_0\BOOST\TYPE_TRAITS\ALIGNMENT_OF.HPP
C:\BOOST\BOOST_1_61_0\BOOST\FUNCTION_EQUAL.HPP
C:\BOOST\BOOST_1_61_0\BOOST\FUNCTION\FUNCTION_FWD.HPP
C:\BOOST\BOOST_1_61_0\BOOST\MEM_FN.HPP
C:\BOOST\BOOST_1_61_0\BOOST\BIND\MEM_FN.HPP
C:\BOOST\BOOST_1_61_0\BOOST\GET_POINTER.HPP
C:\BOOST\BOOST_1_61_0\BOOST\BIND\MEM_FN_TEMPLATE.HPP
C:\BOOST\BOOST_1_61_0\BOOST\BIND\MEM_FN_CC.HPP
C:\BOOST\BOOST_1_61_0\BOOST\PREPROCESSOR\ENUM.HPP
C:\BOOST\BOOST_1_61_0\BOOST\PREPROCESSOR\REPETITION\ENUM.HPP
C:\BOOST\BOOST_1_61_0\BOOST\PREPROCESSOR\ENUM_PARAMS.HPP
C:\BOOST\BOOST_1_61_0\BOOST\DETAIL\NO_EXCEPTIONS_SUPPORT.HPP
C:\BOOST\BOOST_1_61_0\BOOST\CORE\NO_EXCEPTIONS_SUPPORT.HPP
C:\BOOST\BOOST_1_61_0\BOOST\MOVE\UTILITY_CORE.HPP
C:\BOOST\BOOST_1_61_0\BOOST\MOVE\DETAIL\CONFIG_BEGIN.HPP
C:\BOOST\BOOST_1_61_0\BOOST\MOVE\DETAIL\WORKAROUND.HPP
C:\BOOST\BOOST_1_61_0\BOOST\MOVE\CORE.HPP
C:\BOOST\BOOST_1_61_0\BOOST\MOVE\DETAIL\CONFIG_END.HPP
C:\BOOST\BOOST_1_61_0\BOOST\MOVE\DETAIL\META_UTILS.HPP
C:\BOOST\BOOST_1_61_0\BOOST\MOVE\DETAIL\META_UTILS_CORE.HPP
C:\BOOST\BOOST_1_61_0\BOOST\FUNCTION\FUNCTION1.HPP
C:\PROGRAM FILES (X86)\MICROSOFT VISUAL STUDIO 14.0\VC\INCLUDE\VECTOR
C:\BOOST\BOOST_1_61_0\BOOST\TYPE_TRAITS\COMMON_TYPE.HPP
C:\BOOST\BOOST_1_61_0\BOOST\TYPE_TRAITS\DETAIL\MP_DEFER.HPP
C:\BOOST\BOOST_1_61_0\BOOST\TEST\TOOLS\COLLECTION_COMPARISON_OP.HPP
C:\BOOST\BOOST_1_61_0\BOOST\TEST\UTILS\IS_FORWARD_ITERABLE.HPP
C:\BOOST\BOOST_1_61_0\BOOST\TEST\UTILS\IS_CSTRING.HPP
C:\BOOST\BOOST_1_61_0\BOOST\TEST\TOOLS\CSTRING_COMPARISON_OP.HPP
C:\BOOST\BOOST_1_61_0\BOOST\TEST\UTILS\BASIC_CSTRING\COMPARE.HPP
C:\PROGRAM FILES (X86)\MICROSOFT VISUAL STUDIO 14.0\VC\INCLUDE\CCTYPE
C:\BOOST\BOOST_1_61_0\BOOST\TEST\TOOLS\DETAIL\IT_PAIR.HPP
C:\BOOST\BOOST_1_61_0\BOOST\TEST\TOOLS\DETAIL\BITWISE_MANIP.HPP
C:\BOOST\BOOST_1_61_0\BOOST\TEST\TOOLS\DETAIL\INDIRECTIONS.HPP
C:\BOOST\BOOST_1_61_0\BOOST\TEST\TOOLS\DETAIL\TOLERANCE_MANIP.HPP
C:\BOOST\BOOST_1_61_0\BOOST\TEST\TOOLS\DETAIL\PER_ELEMENT_MANIP.HPP
C:\BOOST\BOOST_1_61_0\BOOST\TEST\TOOLS\DETAIL\LEXICOGRAPHIC_MANIP.HPP
C:\BOOST\BOOST_1_61_0\BOOST\TEST\UNIT_TEST_SUITE.HPP
C:\BOOST\BOOST_1_61_0\BOOST\TEST\FRAMEWORK.HPP
C:\BOOST\BOOST_1_61_0\BOOST\TEST\DETAIL\THROW_EXCEPTION.HPP
C:\BOOST\BOOST_1_61_0\BOOST\TEST\TREE\AUTO_REGISTRATION.HPP
C:\BOOST\BOOST_1_61_0\BOOST\TEST\TREE\TEST_UNIT.HPP
C:\PROGRAM FILES (X86)\MICROSOFT VISUAL STUDIO 14.0\VC\INCLUDE\MAP
C:\PROGRAM FILES (X86)\MICROSOFT VISUAL STUDIO 14.0\VC\INCLUDE\XTREE
C:\PROGRAM FILES (X86)\MICROSOFT VISUAL STUDIO 14.0\VC\INCLUDE\LIST
C:\BOOST\BOOST_1_61_0\BOOST\TEST\TREE\TEST_CASE_TEMPLATE.HPP
C:\BOOST\BOOST_1_61_0\BOOST\MPL\FOR_EACH.HPP
C:\BOOST\BOOST_1_61_0\BOOST\MPL\IS_SEQUENCE.HPP
C:\BOOST\BOOST_1_61_0\BOOST\MPL\BEGIN_END.HPP
C:\BOOST\BOOST_1_61_0\BOOST\MPL\BEGIN_END_FWD.HPP
C:\BOOST\BOOST_1_61_0\BOOST\MPL\AUX_\BEGIN_END_IMPL.HPP
C:\BOOST\BOOST_1_61_0\BOOST\MPL\SEQUENCE_TAG_FWD.HPP
C:\BOOST\BOOST_1_61_0\BOOST\MPL\AUX_\HAS_BEGIN.HPP
C:\BOOST\BOOST_1_61_0\BOOST\MPL\AUX_\TRAITS_LAMBDA_SPEC.HPP
C:\BOOST\BOOST_1_61_0\BOOST\MPL\SEQUENCE_TAG.HPP
C:\BOOST\BOOST_1_61_0\BOOST\MPL\APPLY.HPP
C:\BOOST\BOOST_1_61_0\BOOST\MPL\APPLY_FWD.HPP
C:\BOOST\BOOST_1_61_0\BOOST\MPL\AUX_\PREPROCESSED\PLAIN\APPLY_FWD.HPP
C:\BOOST\BOOST_1_61_0\BOOST\MPL\PLACEHOLDERS.HPP
C:\BOOST\BOOST_1_61_0\BOOST\MPL\ARG.HPP
C:\BOOST\BOOST_1_61_0\BOOST\MPL\ARG_FWD.HPP
C:\BOOST\BOOST_1_61_0\BOOST\MPL\AUX_\NA_ASSERT.HPP
C:\BOOST\BOOST_1_61_0\BOOST\MPL\AUX_\ARITY_SPEC.HPP
C:\BOOST\BOOST_1_61_0\BOOST\MPL\AUX_\ARG_TYPEDEF.HPP
C:\BOOST\BOOST_1_61_0\BOOST\MPL\AUX_\PREPROCESSED\PLAIN\ARG.HPP
C:\BOOST\BOOST_1_61_0\BOOST\MPL\AUX_\PREPROCESSED\PLAIN\PLACEHOLDERS.HPP
C:\BOOST\BOOST_1_61_0\BOOST\MPL\LAMBDA.HPP
C:\BOOST\BOOST_1_61_0\BOOST\MPL\BIND.HPP
C:\BOOST\BOOST_1_61_0\BOOST\MPL\BIND_FWD.HPP
C:\BOOST\BOOST_1_61_0\BOOST\MPL\AUX_\CONFIG\BIND.HPP
C:\BOOST\BOOST_1_61_0\BOOST\MPL\AUX_\PREPROCESSED\PLAIN\BIND_FWD.HPP
C:\BOOST\BOOST_1_61_0\BOOST\MPL\NEXT.HPP
C:\BOOST\BOOST_1_61_0\BOOST\MPL\NEXT_PRIOR.HPP
C:\BOOST\BOOST_1_61_0\BOOST\MPL\AUX_\COMMON_NAME_WKND.HPP
C:\BOOST\BOOST_1_61_0\BOOST\MPL\PROTECT.HPP
C:\BOOST\BOOST_1_61_0\BOOST\MPL\AUX_\PREPROCESSED\PLAIN\BIND.HPP
C:\BOOST\BOOST_1_61_0\BOOST\MPL\AUX_\FULL_LAMBDA.HPP
C:\BOOST\BOOST_1_61_0\BOOST\MPL\QUOTE.HPP
C:\BOOST\BOOST_1_61_0\BOOST\MPL\AUX_\HAS_TYPE.HPP
C:\BOOST\BOOST_1_61_0\BOOST\MPL\AUX_\CONFIG\BCC.HPP
C:\BOOST\BOOST_1_61_0\BOOST\MPL\AUX_\PREPROCESSED\PLAIN\QUOTE.HPP
C:\BOOST\BOOST_1_61_0\BOOST\MPL\AUX_\TEMPLATE_ARITY.HPP
C:\BOOST\BOOST_1_61_0\BOOST\MPL\AUX_\PREPROCESSED\PLAIN\TEMPLATE_ARITY.HPP
C:\BOOST\BOOST_1_61_0\BOOST\MPL\AUX_\PREPROCESSED\PLAIN\FULL_LAMBDA.HPP
C:\BOOST\BOOST_1_61_0\BOOST\MPL\AUX_\PREPROCESSED\PLAIN\APPLY.HPP
C:\BOOST\BOOST_1_61_0\BOOST\MPL\DEREF.HPP
C:\BOOST\BOOST_1_61_0\BOOST\MPL\AUX_\MSVC_TYPE.HPP
C:\BOOST\BOOST_1_61_0\BOOST\MPL\AUX_\UNWRAP.HPP
C:\BOOST\BOOST_1_61_0\BOOST\UTILITY\VALUE_INIT.HPP
C:\BOOST\BOOST_1_61_0\BOOST\ALIGNED_STORAGE.HPP
C:\BOOST\BOOST_1_61_0\BOOST\TYPE_TRAITS\ALIGNED_STORAGE.HPP
C:\BOOST\BOOST_1_61_0\BOOST\TYPE_TRAITS\TYPE_WITH_ALIGNMENT.HPP
C:\BOOST\BOOST_1_61_0\BOOST\TYPE_TRAITS\CV_TRAITS.HPP
C:\BOOST\BOOST_1_61_0\BOOST\TYPE_TRAITS\ADD_VOLATILE.HPP
C:\BOOST\BOOST_1_61_0\BOOST\TYPE_TRAITS\ADD_CV.HPP
C:\BOOST\BOOST_1_61_0\BOOST\TYPE_TRAITS\REMOVE_VOLATILE.HPP
C:\BOOST\BOOST_1_61_0\BOOST\SWAP.HPP
C:\BOOST\BOOST_1_61_0\BOOST\CORE\SWAP.HPP
C:\BOOST\BOOST_1_61_0\BOOST\TEST\TREE\GLOBAL_FIXTURE.HPP
C:\BOOST\BOOST_1_61_0\BOOST\CONFIG\AUTO_LINK.HPP
C:\PROGRAM FILES (X86)\MICROSOFT VISUAL STUDIO 14.0\VC\INCLUDE\IOSTREAM
C:\USERS\JOSHW\SCHOOL\ALL_C\C,C++\S3\PRACTICE\CPPSTACK_IMPLEMENTATION\C++STACK_IMPLEMENTATION\STACK.HPP
