^C:\USERS\JOSHW\SCHOOL\ALL_C\C,C++\S3\PRACTICE\CPPSTACK_IMPLEMENTATION\C++STACK_IMPLEMENTATION\DEBUG\UT_STACK_MAIN.OBJ
C:\USERS\JOSHW\SCHOOL\ALL_C\C,C++\S3\PRACTICE\CPPSTACK_IMPLEMENTATION\DEBUG\C++STACK_IMPLEMENTATION.ILK
C:\USERS\JOSHW\SCHOOL\ALL_C\C,C++\S3\PRACTICE\CPPSTACK_IMPLEMENTATION\DEBUG\C++STACK_IMPLEMENTATION.EXE
C:\USERS\JOSHW\SCHOOL\ALL_C\C,C++\S3\PRACTICE\CPPSTACK_IMPLEMENTATION\DEBUG\C++STACK_IMPLEMENTATION.PDB
